Homework 6
…
boot_results =
  right_join(x = r_sq, y = log_b0_b1, by = "strap_number", all = TRUE)

boot_results

## # A tibble: 5,000 x 14
##    strap_number r.squared adj.r.squared sigma statistic   p.value    df logLik
##           <int>     <dbl>         <dbl> <dbl>     <dbl>     <dbl> <dbl>  <dbl>
##  1            1     0.909         0.909  2.93     3628. 4.58e-191     1  -909.
##  2            2     0.920         0.920  2.81     4201. 1.25e-201     1  -893.
##  3            3     0.913         0.913  2.88     3825. 7.42e-195     1  -903.
##  4            4     0.910         0.910  3.03     3679. 4.60e-192     1  -922.
##  5            5     0.905         0.905  3.02     3474. 5.82e-188     1  -921.
##  6            6     0.914         0.914  2.82     3877. 7.78e-196     1  -895.
##  7            7     0.906         0.906  3.01     3491. 2.69e-188     1  -919.
##  8            8     0.920         0.920  2.91     4170. 4.22e-201     1  -906.
##  9            9     0.911         0.910  2.97     3700. 1.85e-192     1  -914.
## 10           10     0.909         0.909  2.98     3630. 4.24e-191     1  -916.
## #  with 4,990 more rows, and 6 more variables: AIC <dbl>, BIC <dbl>,
## #   deviance <dbl>, df.residual <int>, nobs <int>, log_b0_b1 <dbl>
…
